<resources>
    <string name="app_name">Movie App</string>
    <string name="home">Home</string>
    <string name="favorite">Favorite</string>
    <string name="date">Date</string>
    <string name="testList">{"page":1,"total_results":1660,"total_pages":83,"results":[{"popularity":2.913,"id":621284,"video":false,"vote_count":4,"vote_average":8,"title":"I Am Patrick Swayze","release_date":"2019-08-18","original_language":"en","original_title":"I Am Patrick Swayze","genre_ids":[99],"backdrop_path":"\/dOg9ZaQOyXU8LWAxKDg1EWlhtqN.jpg","adult":false,"overview":"An inside look at the life of Patrick Swayze as told by the people who knew him best.","poster_path":"\/2J242i9jtg1wPppXkfjRNhFD3pb.jpg"},{"popularity":2.918,"id":590123,"video":false,"vote_count":2,"vote_average":7,"title":"Aurora Teagarden Mysteries: A Very Foul Play","release_date":"2019-08-18","original_language":"en","original_title":"Aurora Teagarden Mysteries: A Very Foul Play","genre_ids":[9648,10770],"backdrop_path":"\/1sf7nbo1WYRN9Tw0yphVbW2w2go.jpg","adult":false,"overview":"At a gathering of mystery and true crime fans, Aurora Teagarden’s nephew, Phillip, is accused of murder when an unplanned onstage blackout during the play in which he is performing ends, revealing Phillip holding the bloody knife that has just killed one of the other performers.  12th installment in Aurora Teagarden Mysteries","poster_path":"\/3gmqD6qBvmxnDX2owAmnmtSTAay.jpg"},{"popularity":0.6,"id":633650,"video":false,"vote_count":1,"vote_average":7,"title":"An American Hero","release_date":"2019-08-18","original_language":"de","original_title":"Ein amerikanischer Held","genre_ids":[99,10770],"backdrop_path":"\/h7aIO02xHB3lNNbOvZ79F7jgOti.jpg","adult":false,"overview":"United States, September 1, 2016. American football player Colin Kaepernick kneels during the national anthem, protesting police brutality against black people. Part of the population regards the gesture as an unacceptable affront to the flag. Later, he loses his place on his team. Today, however, he is considered by many as a true hero.","poster_path":"\/oOmAtYj5326QQqPfvZIdhznowMC.jpg"},{"popularity":0.6,"id":624372,"video":false,"vote_count":2,"vote_average":6,"title":"Ted Bundy: Mind of a Monster","release_date":"2019-08-18","original_language":"en","original_title":"Ted Bundy: Mind of a Monster","genre_ids":[80,99],"backdrop_path":"\/4qFrZP5XfxfiKkmo51tiwxJxYO0.jpg","adult":false,"overview":"New exclusive access and never before heard testimony gives a unique insight into the mind of America's most notorious serial killer, Ted Bundy. Breathtaking archive from the time and the voice of Bundy himself, reveals the monster inside the man.","poster_path":"\/5d6QZNrZaccfc1fuIVoaLBAlTyK.jpg"},{"popularity":2.755,"id":630098,"video":false,"vote_count":1,"vote_average":5,"title":"Downton Abbey Live!","release_date":"2019-08-18","original_language":"en","original_title":"Downton Abbey Live!","genre_ids":[10770],"backdrop_path":"\/pht5pvAfnx7mhZcJoA8jlwtvGM4.jpg","adult":false,"overview":"A live celebration of the hit TV series, including cast interviews and sneak peeks at the upcoming film.","poster_path":"\/458n3LCIkEbR6zfIw0umY1o5uSb.jpg"},{"popularity":1.217,"id":561557,"video":false,"vote_count":0,"vote_average":0,"title":"The Ash Lad - In Search of the Golden Castle","release_date":"2019-08-23","original_language":"no","original_title":"Askeladden - I Soria Moria slott","genre_ids":[14,12],"backdrop_path":"\/jKGAb2cOSvvEa9S9llKZl7mWPIo.jpg","adult":false,"overview":"When the King and Queen are poisoned, brothers Per and Pål get arrested, suspected of being behind it. Younger brother Espen \"Ash Lad\" and Princess Kristin set out on a quest to find the mythical Soria Moria castle, which is said to be built of pure gold. In Soria Moria, there sits a well containing the Water of Life; the only thing that can cure Kristin's parents. But some wicked Danes are also on the hunt to find the castle. If Espen and Kristin fail, it will spell the end for the brothers, the kingdom - and perhaps the entire world.","poster_path":"\/8DFt15k5NZcHxPBvEyBZfLrlkqO.jpg"},{"popularity":0.6,"id":619771,"video":false,"vote_count":0,"vote_average":0,"title":"Fin Amor","release_date":"2019-08-18","original_language":"es","original_title":"Fin Amor","genre_ids":[10749],"backdrop_path":null,"adult":false,"overview":"A filmmaker falls in love with a married woman.","poster_path":"\/AuHkvH6ynVUq1yOwzetQMXRn4UI.jpg"},{"popularity":0.652,"id":620223,"video":false,"vote_count":0,"vote_average":0,"title":"Perros sin cola","release_date":"2019-08-18","original_language":"es","original_title":"Perros sin cola","genre_ids":[18],"backdrop_path":null,"adult":false,"overview":"Rosario is a wandering teenager who believes that her mother, does not really love her and she's apparently right. The young woman has found refuge in the dance and in her friend Jonathan, a young street vendor who helps raise money for the wedding of his sister Jenny: Rosario's silent and platonic love. On the day of the party the revelry and excesses revealing Rosario can't leaver her family's fate behind.","poster_path":"\/24FCGoNv2P5aM9qJnzOy7NglN1H.jpg"},{"popularity":0.743,"id":620836,"video":false,"vote_count":0,"vote_average":0,"title":"Sad Girl Weekend","release_date":"2019-08-18","original_language":"el","original_title":"Sad Girl Weekend","genre_ids":[],"backdrop_path":null,"adult":false,"overview":"Best friends from college, Elli, Natasha, and Joe are spending their last weekend together on a getaway at Elli’s summerhouse. Natasha and Jo are leaving to study abroad, something that makes Elli emotional, since she feels that she is being left behind.","poster_path":null},{"popularity":0.6,"vote_count":0,"video":false,"poster_path":null,"id":623915,"adult":false,"backdrop_path":null,"original_language":"zh","original_title":"Umbilical","genre_ids":[16],"title":"Umbilical","vote_average":0,"overview":"“This piece explores how my mother’s abusive marriage shaped my experiences in boarding school in China. Our shared desire for normalcy have been constantly at odds with the realities that surround us”.","release_date":"2019-08-18"},{"popularity":0.652,"id":623929,"video":false,"vote_count":0,"vote_average":0,"title":"Leave of Absence","release_date":"2019-08-18","original_language":"ru","original_title":"Pianifica Otpusk","genre_ids":[],"backdrop_path":null,"adult":false,"overview":"Artyom, a regular butchery worker, gets confused with his life circumstances. Suddenly he comes up with an unusual way out of his crisis.","poster_path":null},{"popularity":0.6,"id":623931,"video":false,"vote_count":0,"vote_average":0,"title":"Harley Queen","release_date":"2019-08-18","original_language":"es","original_title":"Harley Queen","genre_ids":[18],"backdrop_path":null,"adult":false,"overview":"A woman yearns to find her identity through her character:a supervillain, dancer and mother, in the Mena sector, or what they call \"the largest ghetto in Chile\", in Puente Alto, Santiago.","poster_path":"\/sSw4ljVw8Q2Ld9wv9z2WkUVQnGg.jpg"},{"popularity":0.6,"vote_count":0,"video":false,"poster_path":"\/rJZGs4Vg1tHZJXjRRWYGs7DbfO8.jpg","id":624725,"adult":false,"backdrop_path":null,"original_language":"en","original_title":"Tatort: Nemesis","genre_ids":[80],"title":"Tatort: Nemesis","vote_average":0,"overview":"Leonie Winkler and Karin Gorniak try together to clarify the murder of the restaurant owner Benda.","release_date":"2019-08-18"},{"popularity":0.6,"vote_count":0,"video":false,"poster_path":null,"id":627726,"adult":false,"backdrop_path":"\/rRAKjft6oVHtDW5iQFXIba2LG5c.jpg","original_language":"en","original_title":"lowlands 2019","genre_ids":[],"title":"lowlands 2019","vote_average":0,"overview":"Taking place from 16 to 18 August at Walibi Holland in Biddinghuizen, A Campingflight To Lowlands Paradise is Hollands biggest most adventurous cultural outdoor event, that maintains an intimate vibe and friendly atmosphere as a township with thousands of inhabitants arises in the middle of the country for the festival.","release_date":"2019-08-18"},{"popularity":4.035,"id":616063,"video":false,"vote_count":3,"vote_average":8.3,"title":"Gates of Paradise","release_date":"2019-08-17","original_language":"en","original_title":"Gates of Paradise","genre_ids":[10770,18],"backdrop_path":"\/g0jwHfB54ZdQww9S4GSaYPV6G36.jpg","adult":false,"overview":"Heaven's daughter Annie finds herself orphaned and crippled. Whisked off to Farthinggale Manor by Tony Tatterton, Annie pines for her lost family, especially for her half-brother Luke. Without the warm glow of Luke's love, she is lost in the shadows of despair and forced into submission by nurse Broadfield. When Annie discovers a cottage hidden in Farthinggale's woods, the mystery of her past deepens. Even as she yearns to see Luke again, her hopes and dreams are darkened by the sinister Casteel spell.","poster_path":"\/oRE2h2p6qDh6W4euUMV38FZMRy5.jpg"},{"popularity":2.135,"vote_count":7,"video":false,"poster_path":"\/nYGLSQElCEkf8mA63KzKf2qTEXD.jpg","id":612315,"adult":false,"backdrop_path":"\/76eLns9JScFgrTkXRU1ajZUW0WV.jpg","original_language":"en","original_title":"A Summer Romance","genre_ids":[10749,10770],"title":"A Summer Romance","vote_average":7.7,"overview":"Samantha’s Montana ranch is her family’s legacy, so when a developer shows up to buy it, Sam isn’t interested. But as he tries to win her trust and her ranch, Sam finds he might also be winning her heart.","release_date":"2019-08-17"},{"popularity":3.175,"id":623464,"video":false,"vote_count":4,"vote_average":4,"title":"Zombie Tidal Wave","release_date":"2019-08-17","original_language":"en","original_title":"Zombie Tidal Wave","genre_ids":[28,12,35,27,878,53],"backdrop_path":"\/3PlHbkANRZRcIYPi5sPLvb4oGAM.jpg","adult":false,"overview":"A fisherman contends with an ocean-borne outbreak that threatens his seaside island community.","poster_path":"\/qQbCDwWjxlsQzJUuf89IKOeBpdX.jpg"},{"popularity":0.754,"id":620745,"video":false,"vote_count":2,"vote_average":3,"title":"A Guiana Sumiu...","release_date":"2019-08-17","original_language":"pt","original_title":"A Guiana Sumiu...","genre_ids":[35,10402],"backdrop_path":null,"adult":false,"overview":"The president of the United States is awakened in the middle of the night with an urgent news: The Guyana has suddenly disappeared from the map.","poster_path":"\/otpBfJQcjcKLjMkjc0HxiBlGGRi.jpg"},{"popularity":0.6,"id":576369,"video":false,"vote_count":0,"vote_average":0,"title":"Long Gone By","release_date":"2019-08-17","original_language":"en","original_title":"Long Gone By","genre_ids":[18],"backdrop_path":null,"adult":false,"overview":"Ana Alvarez is a single mother from Nicaragua living in Northern Indiana with her teenage daughter, Izzy. When a routine check in leads to a deportation order, life as Ana knows it ends. The timing could not be worse as Izzy has just been accepted to Indiana University. Faced with an impossible reality of a lifetime away from her daughter, Ana decides to risk everything in a last chance effort to leave Izzy’s tuition paid before her time runs out.","poster_path":"\/rYlFQXYQIblalLis7tnpzqYbCg2.jpg"},{"popularity":0.6,"vote_count":0,"video":false,"poster_path":"\/eBUPTVHKMYyZRGaEc0Ch0HbO7ZS.jpg","id":610112,"adult":false,"backdrop_path":null,"original_language":"en","original_title":"A Man Prepared","genre_ids":[80,18,9648],"title":"A Man Prepared","vote_average":0,"overview":"Ryan's world begins to change as he allies himself with the mysterious Matthew, who both work together creating a drug empire. As things stack up, pressure succumbs them, and their vision begins to topple apart.","release_date":"2019-08-17"}]}</string>
</resources>
